final_code.utf8
…
predict(tip_rf , test)

## # A tibble: 93,163 x 1
##    .pred_class
##    <fct>      
##  1 1          
##  2 1          
##  3 1          
##  4 1          
##  5 0          
##  6 0          
##  7 1          
##  8 1          
##  9 0          
## 10 1          
## # ... with 93,153 more rows
…
